*** Darwin 25x25 ***
Turn = 0.
  0123456789012345678901234
0 .........................
1 .........................
2 .........................
3 .........................
4 ...................f...r.
5 .........................
6 .........................
7 ......................t..
8 .ht......................
9 t.......................f
0 ........h.........ht.....
1 ...f.....t...............
2 ....fff.........t........
3 ...........t........r....
4 ..............t..........
5 ........r................
6 ................t........
7 ...r.......r...h.....f...
8 ..............t..........
9 ..................h.....f
0 .........f.h.............
1 .........................
2 f............f...........
3 h..............r.........
4 h......................f.

Turn = 14.
  0123456789012345678901234
0 ........h................
1 ........r................
2 .........................
3 .........................
4 ...................f.....
5 .........................
6 .........................
7 ......................t..
8 ..t...................t..
9 t........................
0 ..................tt.....
1 ...f.....t...............
2 ....fff.........t........
3 ...........t..t..........
4 ...........t..tt.........
5 r..............t.........
6 ................t.......r
7 .....................f...
8 ..............t..........
9 ..............t.........f
0 .........f...............
1 .........................
2 .h...........f...........
3 ..r...........h..........
4 r.............h........f.

*** Darwin 25x25 ***
Turn = 0.
  0123456789012345678901234
0 ........t..............h.
1 .........................
2 f..............t.........
3 ........t......f....h....
4 ............t............
5 .........................
6 .........................
7 .........................
8 ...t.h...................
9 ..............r..........
0 .........................
1 ..............f.r.....t..
2 ......................f..
3 .........................
4 ...............r.........
5 ........t.t..............
6 ..f..t....f..............
7 ..................h......
8 .........................
9 ................h........
0 .........................
1 .....t.r.................
2 ..................r......
3 .........h.......h.......
4 .........................

*** Darwin 25x25 ***
Turn = 0.
  0123456789012345678901234
0 t..t..f...rt.........r.t.
1 ....f.t..ft.......h..f...
2 ...........f....th....h..
3 r..r..r.......t...r.....r
4 .........thf.h...........
5 .......t.........h.f.....
6 ..rhhr.r..fhf..t.f.......
7 ..f............r..t..f.t.
8 ....r.....th.....r...r..t
9 ...h.........r....f..f.h.
0 r..t.f......r..ffh.......
1 f...r.r..r....t..t....t..
2 hh..ht..h......r.......f.
3 ........f..h.f..f.hh.....
4 ....fh.f.........r...f.f.
5 .......hh..f.r..fr.h.f.t.
6 thh.f..f..f...f..........
7 t.......h.......tfh.f....
8 rf.f.f.hrrf.f..r.rf.rft..
9 ....f...tf.rh.....tt...ft
0 ..ftf.....f..hf..t...t.f.
1 ...t..h...f....tf...t.f.h
2 t....r......r.h....f...fr
3 .t......t.f.........t...f
4 t....r.t..rrf..f....rff..

*** Darwin 25x25 ***
Turn = 0.
  0123456789012345678901234
0 .........................
1 .........................
2 .........................
3 .........................
4 .........................
5 .........................
6 .........................
7 .........................
8 .........................
9 .........................
0 .........................
1 .........................
2 .........................
3 .........................
4 .........................
5 .........................
6 .........................
7 .........................
8 .........................
9 .........................
0 .........................
1 .........................
2 .........................
3 ........h................
4 .........................

*** Darwin 25x25 ***
Turn = 0.
  0123456789012345678901234
0 .......f.....t...........
1 ...........r..r..f.......
2 ..........h..............
3 .......t..t........r...r.
4 ..............f.t.h......
5 ....................r....
6 ....t.....fh..r........h.
7 ...f.ff.....t...t..r.....
8 .h..t...................t
9 ...ftf...................
0 .................r.h..fh.
1 ...r..............h......
2 ........r.........t..rh..
3 ...tf....h...............
4 .r..t.....t.r..t.........
5 .....h....h......f.......
6 ..r........h.....h.t.t...
7 f.h......h..........f....
8 ...........f........f....
9 ..ht.....h.t.....r.......
0 .t.......................
1 ..r........t...t.....h...
2 h.h...h..f.......hr...r..
3 .....f..h....f....r....hh
4 .........................

Turn = 15.
  0123456789012345678901234
0 .r....rr.........r.....rr
1 .................rr....r.
2 h.h....r.................
3 .......t..t........r.....
4 ..............f.t...r....
5 ................t........
6 ....t.....f..............
7 ...t.ff.....t...t..r.....
8 ...tt.........r..........
9 ...ttt................r..
0 .r..tt...............r...
1 ......................r.r
2 .r................t....rr
3 r.......r...............r
4 r...t....ttt.............
5 .................f.......
6 r..................t.t...
7 ....r..r............tt...
8 r........r..........t....
9 r........r...............
0 .ttt........t............
1 ..t......h.tt..t.........
2 ........hf...............
3 .....fh......f...........
4 ......rrrrr............hh

*** Darwin 25x25 ***
Turn = 0.
  0123456789012345678901234
0 .hh...fh...rf..ht........
1 f.ht....f.rhr...rftr.....
2 ....h...t....f.rt..h.tr..
3 ..rfr.h......h.h.f.r...fr
4 f.t..h.h..t.h...r..t..ttr
5 ..r..th.f..f..t.f........
6 hr........t.......t.rth..
7 r....f.f...r.r....tf.....
8 .hh..f.hht..t...r..h....r
9 .....t....r.....r..t.....
0 t....r.r.h...hfr....t.hh.
1 fr...h...........h.....f.
2 t.f.....h..t.fr..h.....th
3 .......r...h.....t..r..h.
4 r...h.....h......t..r....
5 ...h.r.ff....t..f.....ht.
6 h.f.th.....h..h...rf...ff
7 ...ht.tfh........t....h..
8 hh..t.rh.t..r........r.hr
9 t.......h.f......f.f.....
0 rtf......r.......t..f..h.
1 f......rf..........f....r
2 ....r.......f.r...r.ft..t
3 .....f..t....f.rh.hr.....
4 ..ffr...t.............f..

