*** Darwin 2x8 ***
Turn = 0.
  01234567
0 .f.h.tr.
1 .t.....r

Turn = 3.
  01234567
0 .thrr...
1 .t...r..

Turn = 6.
  01234567
0 .rrrr...
1 .tr.....

*** Darwin 9x10 ***
Turn = 0.
  0123456789
0 ..........
1 ..........
2 ...h......
3 .t.......f
4 ..........
5 ....t.....
6 ..........
7 ....h.....
8 ..........

Turn = 1.
  0123456789
0 ..........
1 ..........
2 ..h.......
3 .t.......f
4 ..........
5 ....t.....
6 ..........
7 ...h......
8 ..........

Turn = 2.
  0123456789
0 ..........
1 ..........
2 .h........
3 .t.......f
4 ..........
5 ....t.....
6 ..........
7 ..h.......
8 ..........

Turn = 3.
  0123456789
0 ..........
1 ..........
2 h.........
3 .t.......f
4 ..........
5 ....t.....
6 ..........
7 .h........
8 ..........

Turn = 4.
  0123456789
0 ..........
1 ..........
2 h.........
3 .t.......f
4 ..........
5 ....t.....
6 ..........
7 h.........
8 ..........

*** Darwin 10x9 ***
Turn = 0.
  012345678
0 ...t.....
1 .........
2 h...f....
3 .........
4 .........
5 .....r...
6 .........
7 .........
8 .........
9 .........

Turn = 1.
  012345678
0 ...t.....
1 .........
2 ....f....
3 h........
4 .........
5 .........
6 .....r...
7 .........
8 .........
9 .........

Turn = 2.
  012345678
0 ...t.....
1 .........
2 ....f....
3 .........
4 h........
5 .........
6 .........
7 .....r...
8 .........
9 .........

Turn = 3.
  012345678
0 ...t.....
1 .........
2 ....f....
3 .........
4 .........
5 h........
6 .........
7 .........
8 .....r...
9 .........

Turn = 4.
  012345678
0 ...t.....
1 .........
2 ....f....
3 .........
4 .........
5 .........
6 h........
7 .........
8 .........
9 .....r...

Turn = 5.
  012345678
0 ...t.....
1 .........
2 ....f....
3 .........
4 .........
5 .........
6 .........
7 h........
8 .........
9 .....r...

Turn = 6.
  012345678
0 ...t.....
1 .........
2 ....f....
3 .........
4 .........
5 .........
6 .........
7 .........
8 h........
9 ....r....

*** Darwin 9x10 ***
Turn = 0.
  0123456789
0 r.........
1 ..........
2 ...r......
3 ..........
4 ..........
5 ..........
6 ..........
7 ..........
8 ........f.

Turn = 2.
  0123456789
0 ..........
1 ..........
2 rr........
3 ..........
4 ..........
5 ..........
6 ..........
7 ..........
8 ........f.

*** Darwin 9x3 ***
Turn = 0.
  012
0 ...
1 t..
2 .t.
3 t.f
4 ...
5 ...
6 ...
7 ...
8 ...

*** Darwin 1x2 ***
Turn = 0.
  01
0 t.

Turn = 3.
  01
0 t.

*** Darwin 8x8 ***
Turn = 0.
  01234567
0 ........
1 ........
2 ........
3 ........
4 ........
5 ........
6 .....t..
7 .h......

Turn = 3.
  01234567
0 ........
1 ........
2 ........
3 ........
4 ........
5 ........
6 .....t..
7 ....h...

*** Darwin 7x7 ***
Turn = 0.
  0123456
0 .......
1 ...f...
2 .r.....
3 .......
4 ....h.t
5 .......
6 .......

Turn = 3.
  0123456
0 .......
1 ...f...
2 ....r..
3 .......
4 .....tt
5 .......
6 .......

*** Darwin 5x1 ***
Turn = 0.
  0
0 .
1 .
2 r
3 t
4 r

Turn = 1.
  0
0 .
1 .
2 t
3 t
4 r

Turn = 2.
  0
0 .
1 .
2 t
3 r
4 r

Turn = 3.
  0
0 .
1 .
2 t
3 r
4 r

Turn = 4.
  0
0 .
1 .
2 t
3 t
4 r

Turn = 5.
  0
0 .
1 .
2 t
3 t
4 r

Turn = 6.
  0
0 .
1 .
2 t
3 t
4 t

*** Darwin 8x4 ***
Turn = 0.
  0123
0 ....
1 ....
2 ....
3 ....
4 ....
5 ....
6 ....
7 r..t

Turn = 1.
  0123
0 ....
1 ....
2 ....
3 ....
4 ....
5 ....
6 ....
7 .r.t

Turn = 2.
  0123
0 ....
1 ....
2 ....
3 ....
4 ....
5 ....
6 ....
7 ..tt

Turn = 3.
  0123
0 ....
1 ....
2 ....
3 ....
4 ....
5 ....
6 ....
7 ..tt

Turn = 4.
  0123
0 ....
1 ....
2 ....
3 ....
4 ....
5 ....
6 ....
7 ..tt

Turn = 5.
  0123
0 ....
1 ....
2 ....
3 ....
4 ....
5 ....
6 ....
7 ..tt

Turn = 6.
  0123
0 ....
1 ....
2 ....
3 ....
4 ....
5 ....
6 ....
7 ..tt

Turn = 7.
  0123
0 ....
1 ....
2 ....
3 ....
4 ....
5 ....
6 ....
7 ..tt

*** Darwin 5x9 ***
Turn = 0.
  012345678
0 .........
1 .....r...
2 t.....f.f
3 ....thr..
4 .........

Turn = 2.
  012345678
0 .........
1 .........
2 t....rf.f
3 ....tt...
4 ......r..

Turn = 4.
  012345678
0 .........
1 .........
2 t....tf.f
3 ....tt...
4 ....r....

*** Darwin 8x9 ***
Turn = 0.
  012345678
0 ...f.....
1 .........
2 ........r
3 .........
4 h........
5 h........
6 .........
7 .........

Turn = 1.
  012345678
0 ...f.....
1 .........
2 .........
3 h.......r
4 .........
5 .h.......
6 .........
7 .........

Turn = 2.
  012345678
0 ...f.....
1 .........
2 h........
3 .........
4 ........r
5 ..h......
6 .........
7 .........

Turn = 3.
  012345678
0 ...f.....
1 h........
2 .........
3 .........
4 .........
5 ...h....r
6 .........
7 .........

Turn = 4.
  012345678
0 h..f.....
1 .........
2 .........
3 .........
4 .........
5 ....h....
6 ........r
7 .........

Turn = 5.
  012345678
0 h..f.....
1 .........
2 .........
3 .........
4 .........
5 .....h...
6 .........
7 ........r

*** Darwin 2x9 ***
Turn = 0.
  012345678
0 t.....r..
1 ..h....tr

*** Darwin 6x9 ***
Turn = 0.
  012345678
0 .........
1 .........
2 .......t.
3 .........
4 r.......t
5 ........t

*** Darwin 6x1 ***
Turn = 0.
  0
0 .
1 t
2 .
3 t
4 t
5 .

Turn = 1.
  0
0 .
1 t
2 .
3 t
4 t
5 .

Turn = 2.
  0
0 .
1 t
2 .
3 t
4 t
5 .

Turn = 3.
  0
0 .
1 t
2 .
3 t
4 t
5 .

Turn = 4.
  0
0 .
1 t
2 .
3 t
4 t
5 .

Turn = 5.
  0
0 .
1 t
2 .
3 t
4 t
5 .

Turn = 6.
  0
0 .
1 t
2 .
3 t
4 t
5 .

Turn = 7.
  0
0 .
1 t
2 .
3 t
4 t
5 .

*** Darwin 2x7 ***
Turn = 0.
  0123456
0 .......
1 ..f....

Turn = 2.
  0123456
0 .......
1 ..f....

*** Darwin 3x9 ***
Turn = 0.
  012345678
0 .......t.
1 ....f....
2 hr.ft....

Turn = 3.
  012345678
0 .r.....t.
1 ....f....
2 ..htt....

Turn = 6.
  012345678
0 ....r..t.
1 ....t....
2 ..ttt....

*** Darwin 10x7 ***
Turn = 0.
  0123456
0 .......
1 .......
2 .......
3 r......
4 ..f....
5 .......
6 .......
7 ....f..
8 ....f.h
9 .......

Turn = 2.
  0123456
0 .......
1 .......
2 r......
3 .......
4 ..f....
5 .......
6 .......
7 ....f..
8 ....f.h
9 .......

Turn = 4.
  0123456
0 r......
1 .......
2 .......
3 .......
4 ..f....
5 .......
6 .......
7 ....f..
8 ....f.h
9 .......

Turn = 6.
  0123456
0 r......
1 .......
2 .......
3 .......
4 ..f....
5 .......
6 .......
7 ....f..
8 ....f.h
9 .......

Turn = 8.
  0123456
0 .r.....
1 .......
2 .......
3 .......
4 ..f....
5 .......
6 .......
7 ....f..
8 ....f.h
9 .......

*** Darwin 9x8 ***
Turn = 0.
  01234567
0 ........
1 ........
2 ........
3 ........
4 f.......
5 ........
6 ........
7 ........
8 ........

Turn = 1.
  01234567
0 ........
1 ........
2 ........
3 ........
4 f.......
5 ........
6 ........
7 ........
8 ........

Turn = 2.
  01234567
0 ........
1 ........
2 ........
3 ........
4 f.......
5 ........
6 ........
7 ........
8 ........

*** Darwin 1x4 ***
Turn = 0.
  0123
0 tfrt

*** Darwin 8x1 ***
Turn = 0.
  0
0 f
1 .
2 f
3 .
4 t
5 .
6 t
7 .

*** Darwin 3x1 ***
Turn = 0.
  0
0 f
1 t
2 .

Turn = 2.
  0
0 t
1 t
2 .

*** Darwin 6x6 ***
Turn = 0.
  012345
0 ......
1 ..r...
2 ......
3 ...f..
4 h.r...
5 h.....

Turn = 2.
  012345
0 ..r...
1 ......
2 ......
3 ...f..
4 ..h...
5 h.r...

*** Darwin 9x6 ***
Turn = 0.
  012345
0 ......
1 ......
2 ......
3 .t....
4 ......
5 ......
6 ......
7 ..h...
8 ......

Turn = 3.
  012345
0 ......
1 ......
2 ......
3 .t....
4 ..h...
5 ......
6 ......
7 ......
8 ......

Turn = 6.
  012345
0 ......
1 ..h...
2 ......
3 .t....
4 ......
5 ......
6 ......
7 ......
8 ......

*** Darwin 4x8 ***
Turn = 0.
  01234567
0 rf.....r
1 ....f.r.
2 ........
3 .....t..

*** Darwin 3x8 ***
Turn = 0.
  01234567
0 .......h
1 .f...h..
2 .t....t.

Turn = 3.
  01234567
0 .......h
1 .t.....h
2 .t....t.

*** Darwin 8x4 ***
Turn = 0.
  0123
0 ...h
1 ....
2 ....
3 ....
4 ....
5 ....
6 ..f.
7 ....

Turn = 2.
  0123
0 .h..
1 ....
2 ....
3 ....
4 ....
5 ....
6 ..f.
7 ....

Turn = 4.
  0123
0 h...
1 ....
2 ....
3 ....
4 ....
5 ....
6 ..f.
7 ....

Turn = 6.
  0123
0 h...
1 ....
2 ....
3 ....
4 ....
5 ....
6 ..f.
7 ....

Turn = 8.
  0123
0 h...
1 ....
2 ....
3 ....
4 ....
5 ....
6 ..f.
7 ....

*** Darwin 6x10 ***
Turn = 0.
  0123456789
0 ...tt...t.
1 ....h.....
2 ..........
3 ..........
4 ..........
5 ..........

*** Darwin 3x9 ***
Turn = 0.
  012345678
0 .r.......
1 .....f...
2 ..t...t.h

Turn = 3.
  012345678
0 ....r....
1 .....f...
2 ..t...t.h

Turn = 6.
  012345678
0 .......r.
1 .....f...
2 ..t...t.h

*** Darwin 2x1 ***
Turn = 0.
  0
0 .
1 t

Turn = 2.
  0
0 .
1 t

Turn = 4.
  0
0 .
1 t

Turn = 6.
  0
0 .
1 t

*** Darwin 4x5 ***
Turn = 0.
  01234
0 .....
1 t...r
2 r....
3 .....

Turn = 2.
  01234
0 ....r
1 r....
2 r....
3 .....

Turn = 4.
  01234
0 .....
1 ..r.r
2 ..r..
3 .....

*** Darwin 8x8 ***
Turn = 0.
  01234567
0 ........
1 ........
2 ........
3 ........
4 ........
5 ......t.
6 ........
7 ...t....

Turn = 2.
  01234567
0 ........
1 ........
2 ........
3 ........
4 ........
5 ......t.
6 ........
7 ...t....

Turn = 4.
  01234567
0 ........
1 ........
2 ........
3 ........
4 ........
5 ......t.
6 ........
7 ...t....

Turn = 6.
  01234567
0 ........
1 ........
2 ........
3 ........
4 ........
5 ......t.
6 ........
7 ...t....

*** Darwin 5x2 ***
Turn = 0.
  01
0 ..
1 rh
2 fr
3 hh
4 ..

Turn = 2.
  01
0 r.
1 .r
2 fr
3 .h
4 .h

*** Darwin 5x9 ***
Turn = 0.
  012345678
0 f.t......
1 ........r
2 .........
3 ......h..
4 .....h.f.

Turn = 1.
  012345678
0 f.t.....r
1 .........
2 .........
3 .........
4 .....hhf.

Turn = 2.
  012345678
0 f.t.....r
1 .........
2 .........
3 .........
4 .....hhf.

Turn = 3.
  012345678
0 f.t.....r
1 .........
2 .........
3 .........
4 .....hhf.

Turn = 4.
  012345678
0 f.t.....r
1 .........
2 .........
3 .........
4 .....hhf.

Turn = 5.
  012345678
0 f.t.....r
1 .........
2 .........
3 .........
4 .....hhf.

Turn = 6.
  012345678
0 f.t......
1 ........r
2 .........
3 .........
4 .....hhf.

Turn = 7.
  012345678
0 f.t......
1 .........
2 ........r
3 .........
4 .....hhf.

*** Darwin 2x4 ***
Turn = 0.
  0123
0 .f..
1 hrrt

Turn = 3.
  0123
0 rr.r
1 .r.t

Turn = 6.
  0123
0 r.rr
1 r..r

*** Darwin 9x7 ***
Turn = 0.
  0123456
0 r......
1 h....t.
2 ...h...
3 .......
4 .......
5 .......
6 .......
7 .......
8 .......

Turn = 1.
  0123456
0 r......
1 h....t.
2 .......
3 ...h...
4 .......
5 .......
6 .......
7 .......
8 .......

*** Darwin 9x7 ***
Turn = 0.
  0123456
0 .......
1 .......
2 ..r....
3 .......
4 .......
5 ..t....
6 .......
7 .......
8 .......

Turn = 3.
  0123456
0 ..r....
1 .......
2 .......
3 .......
4 .......
5 ..t....
6 .......
7 .......
8 .......

Turn = 6.
  0123456
0 .....r.
1 .......
2 .......
3 .......
4 .......
5 ..t....
6 .......
7 .......
8 .......

*** Darwin 4x3 ***
Turn = 0.
  012
0 tft
1 ...
2 ..r
3 f..

*** Darwin 3x6 ***
Turn = 0.
  012345
0 ...h..
1 ....h.
2 ......

Turn = 2.
  012345
0 ......
1 .....h
2 ...h..

*** Darwin 5x4 ***
Turn = 0.
  0123
0 ....
1 ....
2 ....
3 ..r.
4 ....

Turn = 1.
  0123
0 ....
1 ....
2 ..r.
3 ....
4 ....

Turn = 2.
  0123
0 ....
1 ..r.
2 ....
3 ....
4 ....

*** Darwin 4x5 ***
Turn = 0.
  01234
0 t.rh.
1 ..r..
2 r....
3 .....

Turn = 2.
  01234
0 t..rh
1 r....
2 .....
3 r....

*** Darwin 9x3 ***
Turn = 0.
  012
0 ...
1 ...
2 ..f
3 ...
4 r..
5 ...
6 ...
7 ...
8 h.t

Turn = 3.
  012
0 ...
1 ...
2 r.f
3 ...
4 ...
5 ...
6 ...
7 ...
8 .tt

Turn = 6.
  012
0 r..
1 ...
2 ..f
3 ...
4 ...
5 ...
6 ...
7 ...
8 .tt

*** Darwin 9x10 ***
Turn = 0.
  0123456789
0 ..........
1 ..........
2 .f........
3 .t........
4 ..........
5 ..........
6 .......t..
7 .........f
8 ..........

Turn = 1.
  0123456789
0 ..........
1 ..........
2 .f........
3 .t........
4 ..........
5 ..........
6 .......t..
7 .........f
8 ..........

*** Darwin 6x6 ***
Turn = 0.
  012345
0 ......
1 .....h
2 ..f...
3 ......
4 .r....
5 ....f.

Turn = 3.
  012345
0 ......
1 .....h
2 ..f...
3 ......
4 ......
5 r...f.

Turn = 6.
  012345
0 ......
1 .....h
2 ..f...
3 ......
4 ......
5 r...f.

*** Darwin 4x9 ***
Turn = 0.
  012345678
0 .h.......
1 ....r....
2 ....r....
3 .........

*** Darwin 6x5 ***
Turn = 0.
  01234
0 .....
1 .....
2 .....
3 .....
4 .....
5 t....

*** Darwin 7x10 ***
Turn = 0.
  0123456789
0 ..........
1 ..........
2 .r.......f
3 .r....f...
4 ..........
5 ......t...
6 .......r..

Turn = 2.
  0123456789
0 .r........
1 ..........
2 .........f
3 r.....f...
4 ..........
5 ......tt..
6 ..........

Turn = 4.
  0123456789
0 r.........
1 r.........
2 .........f
3 ......f...
4 ..........
5 ......tt..
6 ..........

Turn = 6.
  0123456789
0 r.........
1 .r........
2 .........f
3 ......f...
4 ..........
5 ......tt..
6 ..........

Turn = 8.
  0123456789
0 ..r.......
1 ...r......
2 .........f
3 ......f...
4 ..........
5 ......tt..
6 ..........

*** Darwin 4x5 ***
Turn = 0.
  01234
0 .....
1 .....
2 ..f..
3 .t...

Turn = 2.
  01234
0 .....
1 .....
2 ..f..
3 .t...

Turn = 4.
  01234
0 .....
1 .....
2 ..f..
3 .t...

*** Darwin 2x3 ***
Turn = 0.
  012
0 .r.
1 .fr

Turn = 3.
  012
0 .r.
1 rr.

*** Darwin 9x3 ***
Turn = 0.
  012
0 f..
1 .h.
2 ...
3 ...
4 ...
5 ...
6 h..
7 ...
8 .f.

Turn = 3.
  012
0 f..
1 ...
2 ...
3 h..
4 .h.
5 ...
6 ...
7 ...
8 .f.

*** Darwin 8x6 ***
Turn = 0.
  012345
0 ......
1 ......
2 ......
3 ......
4 ......
5 ......
6 ......
7 f.....

Turn = 1.
  012345
0 ......
1 ......
2 ......
3 ......
4 ......
5 ......
6 ......
7 f.....

Turn = 2.
  012345
0 ......
1 ......
2 ......
3 ......
4 ......
5 ......
6 ......
7 f.....

Turn = 3.
  012345
0 ......
1 ......
2 ......
3 ......
4 ......
5 ......
6 ......
7 f.....

Turn = 4.
  012345
0 ......
1 ......
2 ......
3 ......
4 ......
5 ......
6 ......
7 f.....

Turn = 5.
  012345
0 ......
1 ......
2 ......
3 ......
4 ......
5 ......
6 ......
7 f.....

Turn = 6.
  012345
0 ......
1 ......
2 ......
3 ......
4 ......
5 ......
6 ......
7 f.....

Turn = 7.
  012345
0 ......
1 ......
2 ......
3 ......
4 ......
5 ......
6 ......
7 f.....

*** Darwin 1x9 ***
Turn = 0.
  012345678
0 h......r.

Turn = 1.
  012345678
0 h.......r

Turn = 2.
  012345678
0 h.......r

Turn = 3.
  012345678
0 h.......r

Turn = 4.
  012345678
0 h.......r

Turn = 5.
  012345678
0 h.......r

*** Darwin 7x1 ***
Turn = 0.
  0
0 .
1 h
2 .
3 .
4 f
5 t
6 r

Turn = 1.
  0
0 .
1 h
2 .
3 .
4 f
5 t
6 t

Turn = 2.
  0
0 .
1 h
2 .
3 .
4 f
5 t
6 t

Turn = 3.
  0
0 .
1 h
2 .
3 .
4 f
5 t
6 t

Turn = 4.
  0
0 .
1 h
2 .
3 .
4 t
5 t
6 t

Turn = 5.
  0
0 .
1 h
2 .
3 .
4 t
5 t
6 t

Turn = 6.
  0
0 .
1 h
2 .
3 .
4 t
5 t
6 t

Turn = 7.
  0
0 .
1 h
2 .
3 .
4 t
5 t
6 t

Turn = 8.
  0
0 .
1 h
2 .
3 .
4 t
5 t
6 t

*** Darwin 6x2 ***
Turn = 0.
  01
0 .f
1 .f
2 ..
3 tt
4 h.
5 ..

Turn = 1.
  01
0 .f
1 .f
2 ..
3 tt
4 t.
5 ..

Turn = 2.
  01
0 .f
1 .f
2 ..
3 tt
4 t.
5 ..

Turn = 3.
  01
0 .f
1 .f
2 ..
3 tt
4 t.
5 ..

Turn = 4.
  01
0 .f
1 .f
2 ..
3 tt
4 t.
5 ..

Turn = 5.
  01
0 .f
1 .f
2 ..
3 tt
4 t.
5 ..

Turn = 6.
  01
0 .f
1 .f
2 ..
3 tt
4 t.
5 ..

Turn = 7.
  01
0 .f
1 .f
2 ..
3 tt
4 t.
5 ..

Turn = 8.
  01
0 .f
1 .f
2 ..
3 tt
4 t.
5 ..

*** Darwin 8x5 ***
Turn = 0.
  01234
0 .....
1 .t..h
2 .t.h.
3 ...r.
4 ....f
5 ..r..
6 .....
7 .....

Turn = 2.
  01234
0 ...h.
1 .t..h
2 .t...
3 .....
4 ...rf
5 ....r
6 .....
7 .....

*** Darwin 10x5 ***
Turn = 0.
  01234
0 ..r..
1 .....
2 .....
3 .....
4 .....
5 .....
6 .....
7 .....
8 .r...
9 th...

Turn = 2.
  01234
0 .....
1 .....
2 ..r..
3 .....
4 .....
5 .....
6 .r...
7 .....
8 .....
9 t..h.

Turn = 4.
  01234
0 .....
1 .....
2 .....
3 .....
4 .rr..
5 .....
6 .....
7 .....
8 .....
9 t...h

Turn = 6.
  01234
0 .....
1 .....
2 .r...
3 .....
4 .....
5 .....
6 ..r..
7 .....
8 .....
9 t...h

*** Darwin 1x3 ***
Turn = 0.
  012
0 hfr

Turn = 1.
  012
0 hfr

Turn = 2.
  012
0 hrr

Turn = 3.
  012
0 hrr

Turn = 4.
  012
0 hrr

*** Darwin 1x4 ***
Turn = 0.
  0123
0 f.hr

Turn = 3.
  0123
0 fr.r

*** Darwin 7x5 ***
Turn = 0.
  01234
0 ht...
1 .....
2 .....
3 .....
4 .....
5 ...r.
6 f....

Turn = 2.
  01234
0 .t...
1 .....
2 h....
3 .....
4 .....
5 .r...
6 f....

Turn = 4.
  01234
0 .t...
1 .....
2 .....
3 .....
4 h....
5 r....
6 f....

Turn = 6.
  01234
0 .t...
1 .....
2 .....
3 .....
4 r....
5 r....
6 f....

*** Darwin 7x8 ***
Turn = 0.
  01234567
0 ........
1 ........
2 ........
3 .......r
4 ....h...
5 .......r
6 ........

